0.000000000000000000e+00,0.000000000000000000e+00,0.000000000000000000e+00
0.000000000000000000e+00,0.000000000000000000e+00,7.273999999999999216e-03
0.000000000000000000e+00,0.000000000000000000e+00,1.730199999999999794e-02
0.000000000000000000e+00,0.000000000000000000e+00,2.732999999999999666e-02
0.000000000000000000e+00,0.000000000000000000e+00,3.735900000000000332e-02
0.000000000000000000e+00,0.000000000000000000e+00,4.738699999999999857e-02
0.000000000000000000e+00,0.000000000000000000e+00,5.741699999999999582e-02
0.000000000000000000e+00,0.000000000000000000e+00,6.744500000000000495e-02
0.000000000000000000e+00,0.000000000000000000e+00,7.754800000000000582e-02
0.000000000000000000e+00,0.000000000000000000e+00,8.774200000000000055e-02
0.000000000000000000e+00,0.000000000000000000e+00,9.638700000000000045e-02
0.000000000000000000e+00,0.000000000000000000e+00,1.064169999999999977e-01
0.000000000000000000e+00,0.000000000000000000e+00,1.164449999999999930e-01
0.000000000000000000e+00,0.000000000000000000e+00,1.264730000000000021e-01
0.000000000000000000e+00,0.000000000000000000e+00,1.365019999999999845e-01
0.000000000000000000e+00,0.000000000000000000e+00,1.465319999999999956e-01
0.000000000000000000e+00,0.000000000000000000e+00,1.566379999999999995e-01
0.000000000000000000e+00,0.000000000000000000e+00,1.668909999999999838e-01
0.000000000000000000e+00,0.000000000000000000e+00,1.769199999999999939e-01
0.000000000000000000e+00,0.000000000000000000e+00,1.869470000000000021e-01
0.000000000000000000e+00,0.000000000000000000e+00,1.969759999999999844e-01
0.000000000000000000e+00,0.000000000000000000e+00,2.070039999999999936e-01
0.000000000000000000e+00,0.000000000000000000e+00,2.170320000000000027e-01
0.000000000000000000e+00,0.000000000000000000e+00,2.270609999999999851e-01
0.000000000000000000e+00,0.000000000000000000e+00,2.371719999999999939e-01
0.000000000000000000e+00,0.000000000000000000e+00,2.474350000000000160e-01
0.000000000000000000e+00,0.000000000000000000e+00,2.574649999999999994e-01
0.000000000000000000e+00,0.000000000000000000e+00,2.674940000000000095e-01
0.000000000000000000e+00,0.000000000000000000e+00,2.775219999999999909e-01
0.000000000000000000e+00,0.000000000000000000e+00,2.875519999999999743e-01
0.000000000000000000e+00,0.000000000000000000e+00,2.969149999999999845e-01
0.000000000000000000e+00,0.000000000000000000e+00,3.069870000000000099e-01
0.000000000000000000e+00,0.000000000000000000e+00,3.170789999999999997e-01
0.000000000000000000e+00,0.000000000000000000e+00,3.271229999999999971e-01
0.000000000000000000e+00,0.000000000000000000e+00,3.371509999999999785e-01
0.000000000000000000e+00,0.000000000000000000e+00,3.471809999999999619e-01
0.000000000000000000e+00,0.000000000000000000e+00,3.572299999999999920e-01
0.000000000000000000e+00,0.000000000000000000e+00,3.672690000000000121e-01
0.000000000000000000e+00,0.000000000000000000e+00,3.772969999999999935e-01
0.000000000000000000e+00,0.000000000000000000e+00,3.873260000000000036e-01
0.000000000000000000e+00,0.000000000000000000e+00,3.974590000000000067e-01
0.000000000000000000e+00,0.000000000000000000e+00,4.076380000000000003e-01
0.000000000000000000e+00,0.000000000000000000e+00,4.176729999999999610e-01
0.000000000000000000e+00,0.000000000000000000e+00,4.277029999999999998e-01
0.000000000000000000e+00,0.000000000000000000e+00,4.377329999999999832e-01
0.000000000000000000e+00,0.000000000000000000e+00,4.463809999999999722e-01
0.000000000000000000e+00,0.000000000000000000e+00,4.564090000000000091e-01
0.000000000000000000e+00,0.000000000000000000e+00,4.664389999999999925e-01
0.000000000000000000e+00,0.000000000000000000e+00,4.765679999999999916e-01
0.000000000000000000e+00,0.000000000000000000e+00,4.867710000000000092e-01
0.000000000000000000e+00,0.000000000000000000e+00,4.967999999999999639e-01
0.000000000000000000e+00,0.000000000000000000e+00,5.068289999999999740e-01
0.000000000000000000e+00,0.000000000000000000e+00,5.168559999999998711e-01
0.000000000000000000e+00,0.000000000000000000e+00,5.268849999999999367e-01
0.000000000000000000e+00,0.000000000000000000e+00,5.369129999999999736e-01
0.000000000000000000e+00,0.000000000000000000e+00,5.469429999999999570e-01
0.000000000000000000e+00,0.000000000000000000e+00,5.570729999999999293e-01
0.000000000000000000e+00,0.000000000000000000e+00,5.672699999999999410e-01
0.000000000000000000e+00,0.000000000000000000e+00,5.772989999999998956e-01
0.000000000000000000e+00,0.000000000000000000e+00,5.873269999999999325e-01
0.000000000000000000e+00,0.000000000000000000e+00,5.973559999999998871e-01
0.000000000000000000e+00,0.000000000000000000e+00,6.073849999999999527e-01
0.000000000000000000e+00,0.000000000000000000e+00,6.174139999999999073e-01
0.000000000000000000e+00,0.000000000000000000e+00,6.274429999999999730e-01
0.000000000000000000e+00,0.000000000000000000e+00,6.375789999999998958e-01
0.000000000000000000e+00,0.000000000000000000e+00,6.477309999999999457e-01
0.000000000000000000e+00,0.000000000000000000e+00,6.563769999999998772e-01
0.000000000000000000e+00,0.000000000000000000e+00,6.664039999999998853e-01
0.000000000000000000e+00,0.000000000000000000e+00,6.764319999999999222e-01
0.000000000000000000e+00,0.000000000000000000e+00,6.864609999999998768e-01
0.000000000000000000e+00,0.000000000000000000e+00,6.964899999999999425e-01
0.000000000000000000e+00,0.000000000000000000e+00,7.065189999999998971e-01
0.000000000000000000e+00,0.000000000000000000e+00,7.166579999999999062e-01
0.000000000000000000e+00,0.000000000000000000e+00,7.268569999999998643e-01
0.000000000000000000e+00,0.000000000000000000e+00,7.368959999999998844e-01
0.000000000000000000e+00,0.000000000000000000e+00,7.469259999999998678e-01
0.000000000000000000e+00,0.000000000000000000e+00,7.569529999999998759e-01
0.000000000000000000e+00,0.000000000000000000e+00,7.669809999999999128e-01
0.000000000000000000e+00,0.000000000000000000e+00,7.770099999999998674e-01
0.000000000000000000e+00,0.000000000000000000e+00,7.864159999999998929e-01
0.000000000000000000e+00,0.000000000000000000e+00,7.965369999999999395e-01
0.000000000000000000e+00,0.000000000000000000e+00,8.066119999999998846e-01
0.000000000000000000e+00,0.000000000000000000e+00,8.166419999999998680e-01
0.000000000000000000e+00,0.000000000000000000e+00,8.266719999999999624e-01
0.000000000000000000e+00,0.000000000000000000e+00,8.367019999999999458e-01
0.000000000000000000e+00,0.000000000000000000e+00,8.467549999999999244e-01
0.000000000000000000e+00,0.000000000000000000e+00,8.567979999999999485e-01
0.000000000000000000e+00,0.000000000000000000e+00,8.668249999999999567e-01
0.000000000000000000e+00,0.000000000000000000e+00,8.769009999999999305e-01
0.000000000000000000e+00,0.000000000000000000e+00,8.870909999999999629e-01
0.000000000000000000e+00,0.000000000000000000e+00,8.971189999999998888e-01
0.000000000000000000e+00,0.000000000000000000e+00,9.071539999999999049e-01
0.000000000000000000e+00,0.000000000000000000e+00,9.171819999999999418e-01
0.000000000000000000e+00,0.000000000000000000e+00,9.272109999999998964e-01
0.000000000000000000e+00,0.000000000000000000e+00,9.372389999999999333e-01
0.000000000000000000e+00,0.000000000000000000e+00,9.472679999999998879e-01
0.000000000000000000e+00,0.000000000000000000e+00,9.573449999999998905e-01
0.000000000000000000e+00,0.000000000000000000e+00,9.676029999999998799e-01
0.000000000000000000e+00,0.000000000000000000e+00,9.776309999999999167e-01
0.000000000000000000e+00,1.200000000000000000e+03,9.876599999999998714e-01
3.343238999999999805e+02,1.200000000000000000e+03,9.974379999999999358e-01
7.783544000000000551e+02,1.200000000000000000e+03,1.007219000000000086e+00
1.364621000000000095e+03,1.200000000000000000e+03,1.017077000000000009e+00
1.179653999999999996e+03,1.200000000000000000e+03,1.027128999999999959e+00
1.415305000000000064e+03,1.200000000000000000e+03,1.036999999999999922e+00
8.797327000000000226e+02,1.200000000000000000e+03,1.047150000000000025e+00
1.332130000000000109e+03,1.200000000000000000e+03,1.057006000000000112e+00
8.803863000000000056e+02,1.200000000000000000e+03,1.066944000000000115e+00
1.297765000000000100e+03,1.200000000000000000e+03,1.076880999999999977e+00
1.103269000000000005e+03,1.200000000000000000e+03,1.086699999999999999e+00
1.255411000000000058e+03,1.200000000000000000e+03,1.096675000000000066e+00
1.327137999999999920e+03,1.200000000000000000e+03,1.106492999999999949e+00
9.131402000000000498e+02,1.200000000000000000e+03,1.116524000000000072e+00
1.363635999999999967e+03,1.200000000000000000e+03,1.126602000000000103e+00
8.246656000000000404e+02,1.200000000000000000e+03,1.136535999999999991e+00
1.395096999999999980e+03,1.200000000000000000e+03,1.146473000000000075e+00
9.131402000000000498e+02,1.200000000000000000e+03,1.156371000000000038e+00
1.082250999999999976e+03,1.200000000000000000e+03,1.167693000000000092e+00
1.302894999999999982e+03,1.200000000000000000e+03,1.177510999999999974e+00
1.234656999999999925e+03,1.200000000000000000e+03,1.187564999999999982e+00
1.247215999999999894e+03,1.200000000000000000e+03,1.197441999999999895e+00
1.007220000000000027e+03,1.200000000000000000e+03,1.207645999999999997e+00
1.294248000000000047e+03,1.200000000000000000e+03,1.217472000000000110e+00
1.069836999999999989e+03,1.200000000000000000e+03,1.227449000000000012e+00
1.395096999999999980e+03,1.200000000000000000e+03,1.237346000000000057e+00
1.146142000000000053e+03,1.200000000000000000e+03,1.247322999999999960e+00
1.350865000000000009e+03,1.200000000000000000e+03,1.260777000000000037e+00
9.319525999999999613e+02,1.200000000000000000e+03,1.266623000000000054e+00
1.401868999999999915e+03,1.200000000000000000e+03,1.276524999999999910e+00
1.189617999999999938e+03,1.200000000000000000e+03,1.286586000000000007e+00
1.449171000000000049e+03,1.200000000000000000e+03,1.296445000000000070e+00
1.222943999999999960e+03,1.200000000000000000e+03,1.306499000000000077e+00
1.234248000000000047e+03,1.200000000000000000e+03,1.317669999999999897e+00
1.286022999999999911e+03,1.200000000000000000e+03,1.327755999999999936e+00
7.132243999999999460e+02,1.200000000000000000e+03,1.337695000000000078e+00
9.848486000000000331e+02,1.200000000000000000e+03,1.347633000000000081e+00
1.270431000000000040e+03,1.200000000000000000e+03,1.357512999999999970e+00
1.080178000000000111e+03,1.200000000000000000e+03,1.367434000000000038e+00
1.313711000000000013e+03,1.200000000000000000e+03,1.377416999999999891e+00
1.068249000000000024e+03,1.200000000000000000e+03,1.387393000000000098e+00
1.232876999999999953e+03,1.200000000000000000e+03,1.397289000000000003e+00
1.313056000000000040e+03,1.200000000000000000e+03,1.407148000000000065e+00
1.090503999999999905e+03,1.200000000000000000e+03,1.417125999999999886e+00
1.267147999999999911e+03,1.200000000000000000e+03,1.427103000000000010e+00
1.437593000000000075e+03,1.200000000000000000e+03,1.436946999999999974e+00
1.309523999999999887e+03,1.200000000000000000e+03,1.447025000000000006e+00
9.026746000000000549e+02,1.200000000000000000e+03,1.456960000000000033e+00
1.363635999999999967e+03,1.200000000000000000e+03,1.466817999999999955e+00
1.212996000000000095e+03,1.200000000000000000e+03,1.476874999999999938e+00
9.591077999999999975e+02,1.200000000000000000e+03,1.486733000000000082e+00
1.352814000000000078e+03,1.200000000000000000e+03,1.496748999999999885e+00
1.103895999999999958e+03,1.200000000000000000e+03,1.506764999999999910e+00
1.321299999999999955e+03,1.200000000000000000e+03,1.516691999999999929e+00
8.921933000000000220e+02,1.200000000000000000e+03,1.526653999999999956e+00
1.429603000000000065e+03,1.200000000000000000e+03,1.536588999999999983e+00
1.215613000000000056e+03,1.200000000000000000e+03,1.546524999999999928e+00
1.002971999999999980e+03,1.200000000000000000e+03,1.556421999999999972e+00
1.310469000000000051e+03,1.200000000000000000e+03,1.567744999999999944e+00
1.156339999999999918e+03,1.200000000000000000e+03,1.576378000000000057e+00
1.439394000000000005e+03,1.200000000000000000e+03,1.587579999999999991e+00
1.267147999999999911e+03,1.200000000000000000e+03,1.597663999999999973e+00
1.114413000000000011e+03,1.200000000000000000e+03,1.607547000000000059e+00
1.277978000000000065e+03,1.200000000000000000e+03,1.617521999999999904e+00
1.069041999999999916e+03,1.200000000000000000e+03,1.627420000000000089e+00
1.309523999999999887e+03,1.200000000000000000e+03,1.637396000000000074e+00
1.244588999999999942e+03,1.200000000000000000e+03,1.647450000000000081e+00
1.135856999999999971e+03,1.200000000000000000e+03,1.657308999999999921e+00
1.308579999999999927e+03,1.200000000000000000e+03,1.667335999999999929e+00
1.113586000000000013e+03,1.200000000000000000e+03,1.677470000000000017e+00
1.297765000000000100e+03,1.200000000000000000e+03,1.687524000000000024e+00
1.238232999999999947e+03,1.200000000000000000e+03,1.697500999999999927e+00
1.058692000000000007e+03,1.200000000000000000e+03,1.707440999999999987e+00
1.457883000000000038e+03,1.200000000000000000e+03,1.716817000000000037e+00
1.305755000000000109e+03,1.200000000000000000e+03,1.726906999999999970e+00
1.245487000000000080e+03,1.200000000000000000e+03,1.736988999999999894e+00
1.136701000000000022e+03,1.200000000000000000e+03,1.746847999999999956e+00
1.256317999999999984e+03,1.200000000000000000e+03,1.757036000000000042e+00
1.047548000000000002e+03,1.200000000000000000e+03,1.766948999999999881e+00
1.353790999999999940e+03,1.200000000000000000e+03,1.776974999999999971e+00
1.213873000000000047e+03,1.200000000000000000e+03,1.787031000000000036e+00
1.147846000000000004e+03,1.200000000000000000e+03,1.796850000000000058e+00
1.309523999999999887e+03,1.200000000000000000e+03,1.806864999999999943e+00
1.111111000000000104e+03,1.200000000000000000e+03,1.816846999999999879e+00
1.353790999999999940e+03,1.200000000000000000e+03,1.826740999999999948e+00
1.233766000000000076e+03,1.200000000000000000e+03,1.836983000000000033e+00
1.136701000000000022e+03,1.200000000000000000e+03,1.846932999999999936e+00
1.309523999999999887e+03,1.200000000000000000e+03,1.857018000000000058e+00
1.191336000000000013e+03,1.200000000000000000e+03,1.867075000000000040e+00
1.360595000000000027e+03,1.200000000000000000e+03,1.876894000000000062e+00
1.179653999999999996e+03,1.200000000000000000e+03,1.886951000000000045e+00
1.270431000000000040e+03,1.200000000000000000e+03,1.896728999999999887e+00
1.234656999999999925e+03,1.200000000000000000e+03,1.906782999999999895e+00
1.181278000000000020e+03,1.200000000000000000e+03,1.916787999999999936e+00
1.405912000000000035e+03,1.200000000000000000e+03,1.926930000000000032e+00
1.190476000000000113e+03,1.200000000000000000e+03,1.937001999999999891e+00
1.258352000000000089e+03,1.200000000000000000e+03,1.946780999999999873e+00
1.233766000000000076e+03,1.200000000000000000e+03,1.956834999999999880e+00
9.799554000000000542e+02,1.200000000000000000e+03,1.966820000000000013e+00
1.310469000000000051e+03,1.200000000000000000e+03,1.976796999999999915e+00
9.695393000000000256e+02,1.200000000000000000e+03,1.986693999999999960e+00
1.386280999999999949e+03,1.200000000000000000e+03,1.996824000000000154e+00
1.277978000000000065e+03,1.200000000000000000e+03,2.006962000000000135e+00
1.125557000000000016e+03,1.200000000000000000e+03,2.016932999999999865e+00
1.255411000000000058e+03,1.200000000000000000e+03,2.026911000000000129e+00
9.702600999999999658e+02,1.200000000000000000e+03,2.036807000000000034e+00
1.288808999999999969e+03,1.200000000000000000e+03,2.046822000000000141e+00
1.292719000000000051e+03,1.200000000000000000e+03,2.056757999999999864e+00
1.222943999999999960e+03,1.200000000000000000e+03,2.066813999999999929e+00
1.214710000000000036e+03,1.200000000000000000e+03,2.076829000000000036e+00
1.168830999999999904e+03,1.200000000000000000e+03,2.086930000000000174e+00
1.332130000000000109e+03,1.200000000000000000e+03,2.096980999999999984e+00
1.325166999999999916e+03,1.200000000000000000e+03,2.106878000000000029e+00
1.212121000000000095e+03,1.200000000000000000e+03,2.116934999999999789e+00
1.170134000000000015e+03,1.200000000000000000e+03,2.126754000000000033e+00
1.310469000000000051e+03,1.200000000000000000e+03,2.136769999999999836e+00
1.179653999999999996e+03,1.200000000000000000e+03,2.146849000000000007e+00
1.226766000000000076e+03,1.200000000000000000e+03,2.157646000000000175e+00
1.395847999999999956e+03,1.200000000000000000e+03,2.166389000000000120e+00
1.268656999999999925e+03,1.200000000000000000e+03,2.176486000000000143e+00
1.224943999999999960e+03,1.200000000000000000e+03,2.186383999999999883e+00
1.341990999999999985e+03,1.200000000000000000e+03,2.196441999999999783e+00
9.827213000000000420e+02,1.200000000000000000e+03,2.206463999999999981e+00
1.383285000000000082e+03,1.200000000000000000e+03,2.217734000000000094e+00
1.190476000000000113e+03,1.200000000000000000e+03,2.226402999999999910e+00
8.135214999999999463e+02,1.200000000000000000e+03,2.237782999999999856e+00
1.277444999999999936e+03,1.200000000000000000e+03,2.246449999999999836e+00
1.035634999999999991e+03,1.200000000000000000e+03,2.256387999999999838e+00
1.283249000000000024e+03,1.200000000000000000e+03,2.266369999999999774e+00
1.069836999999999989e+03,1.200000000000000000e+03,2.277695000000000025e+00
1.201298999999999978e+03,1.200000000000000000e+03,2.287672000000000150e+00
1.202672000000000025e+03,1.200000000000000000e+03,2.297568999999999750e+00
1.201298999999999978e+03,1.200000000000000000e+03,2.307627000000000095e+00
1.337296000000000049e+03,1.200000000000000000e+03,2.317540000000000155e+00
1.338215999999999894e+03,1.200000000000000000e+03,2.326411999999999924e+00
1.200432999999999993e+03,1.200000000000000000e+03,2.336466999999999850e+00
1.321299999999999955e+03,1.200000000000000000e+03,2.347713000000000161e+00
1.190476000000000113e+03,1.200000000000000000e+03,2.356381999999999977e+00
1.526746000000000095e+03,1.200000000000000000e+03,2.367547999999999764e+00
1.417749000000000024e+03,1.200000000000000000e+03,2.377604999999999968e+00
1.212996000000000095e+03,1.200000000000000000e+03,2.387659999999999894e+00
1.159851000000000113e+03,1.200000000000000000e+03,2.397574999999999790e+00
1.320000000000000000e+03,1.200000000000000000e+03,2.406401999999999930e+00
1.188760999999999967e+03,1.200000000000000000e+03,2.416459000000000135e+00
1.212996000000000095e+03,1.200000000000000000e+03,2.427661000000000069e+00
1.024499000000000024e+03,1.200000000000000000e+03,2.437641000000000169e+00
1.332130000000000109e+03,1.200000000000000000e+03,2.447535999999999934e+00
1.113586000000000013e+03,1.200000000000000000e+03,2.457434999999999814e+00
1.396104000000000042e+03,1.200000000000000000e+03,2.467410000000000103e+00
1.254506000000000085e+03,1.200000000000000000e+03,2.477564999999999795e+00
1.139380000000000109e+03,1.200000000000000000e+03,2.487569999999999837e+00
1.288808999999999969e+03,1.200000000000000000e+03,2.497584999999999944e+00
1.146992999999999938e+03,1.200000000000000000e+03,2.507562999999999764e+00
1.363635999999999967e+03,1.200000000000000000e+03,2.517498999999999931e+00
1.233766000000000076e+03,1.200000000000000000e+03,2.527556999999999832e+00
1.113586000000000013e+03,1.200000000000000000e+03,2.537389000000000117e+00
1.341023999999999887e+03,1.200000000000000000e+03,2.547365000000000101e+00
1.222943999999999960e+03,1.200000000000000000e+03,2.557652000000000037e+00
1.329787000000000035e+03,1.200000000000000000e+03,2.567581000000000113e+00
1.265320999999999913e+03,1.200000000000000000e+03,2.577666999999999931e+00
1.242669000000000096e+03,1.200000000000000000e+03,2.587552000000000074e+00
1.331169000000000096e+03,1.200000000000000000e+03,2.597055000000000113e+00
1.100000000000000000e+03,1.200000000000000000e+03,2.607070999999999916e+00
1.351931000000000040e+03,1.200000000000000000e+03,2.616995999999999878e+00
1.233766000000000076e+03,1.200000000000000000e+03,2.627053999999999778e+00
1.192422000000000025e+03,1.200000000000000000e+03,2.637020999999999837e+00
1.274298000000000002e+03,1.200000000000000000e+03,2.647086999999999968e+00
1.143596999999999980e+03,1.200000000000000000e+03,2.657089000000000034e+00
1.320346000000000004e+03,1.200000000000000000e+03,2.667024000000000061e+00
1.190476000000000113e+03,1.200000000000000000e+03,2.677078999999999986e+00
1.281575000000000045e+03,1.200000000000000000e+03,2.686897000000000091e+00
1.256317999999999984e+03,1.200000000000000000e+03,2.696952000000000016e+00
1.069836999999999989e+03,1.200000000000000000e+03,2.706852000000000036e+00
1.299638999999999896e+03,1.200000000000000000e+03,2.716978000000000115e+00
1.049336999999999989e+03,1.200000000000000000e+03,2.727100999999999775e+00
1.322253999999999905e+03,1.200000000000000000e+03,2.737076000000000064e+00
1.192422000000000025e+03,1.200000000000000000e+03,2.747052999999999745e+00
1.407942000000000007e+03,1.200000000000000000e+03,2.756952000000000069e+00
1.213873000000000047e+03,1.200000000000000000e+03,2.767005999999999855e+00
1.181278000000000020e+03,1.200000000000000000e+03,2.776823999999999959e+00
1.288808999999999969e+03,1.200000000000000000e+03,2.786837999999999926e+00
1.158009000000000015e+03,1.200000000000000000e+03,2.796968999999999816e+00
1.409395999999999958e+03,1.200000000000000000e+03,2.807015999999999956e+00
1.212121000000000095e+03,1.200000000000000000e+03,2.817072000000000020e+00
1.282528000000000020e+03,1.200000000000000000e+03,2.826928000000000107e+00
1.212996000000000095e+03,1.200000000000000000e+03,2.836986000000000008e+00
8.252788000000000466e+02,1.200000000000000000e+03,2.846921999999999731e+00
1.380846000000000004e+03,1.200000000000000000e+03,2.856821000000000055e+00
1.125557000000000016e+03,1.200000000000000000e+03,2.866797999999999735e+00
1.256317999999999984e+03,1.200000000000000000e+03,2.876888000000000112e+00
1.069224999999999909e+03,1.200000000000000000e+03,2.886983999999999995e+00
1.398121000000000095e+03,1.200000000000000000e+03,2.896961000000000119e+00
1.277056000000000040e+03,1.200000000000000000e+03,2.907017999999999880e+00
1.069836999999999989e+03,1.200000000000000000e+03,2.916916000000000064e+00
1.364621000000000095e+03,1.200000000000000000e+03,2.926890999999999909e+00
1.223826999999999998e+03,1.200000000000000000e+03,2.936907999999999852e+00
1.136701000000000022e+03,1.200000000000000000e+03,2.946806999999999732e+00
1.299638999999999896e+03,1.200000000000000000e+03,2.956938000000000066e+00
1.095040999999999940e+03,1.200000000000000000e+03,2.967038999999999760e+00
1.310469000000000051e+03,1.200000000000000000e+03,2.977055999999999703e+00
1.103895999999999958e+03,1.200000000000000000e+03,2.987112999999999907e+00
1.193308999999999969e+03,1.200000000000000000e+03,2.996890000000000054e+00
1.233766000000000076e+03,1.200000000000000000e+03,3.006902999999999881e+00
1.225854000000000042e+03,1.200000000000000000e+03,3.016769999999999730e+00
1.266233999999999924e+03,1.200000000000000000e+03,3.026858999999999966e+00
1.100815000000000055e+03,1.200000000000000000e+03,3.037735000000000074e+00
1.259871000000000095e+03,1.200000000000000000e+03,3.047743000000000091e+00
1.147846000000000004e+03,1.200000000000000000e+03,3.057703000000000060e+00
1.299638999999999896e+03,1.200000000000000000e+03,3.067720999999999698e+00
1.222061999999999898e+03,1.200000000000000000e+03,3.076389999999999958e+00
1.297765000000000100e+03,1.200000000000000000e+03,3.087641000000000080e+00
1.080980999999999995e+03,1.200000000000000000e+03,3.097647999999999957e+00
1.342960000000000036e+03,1.200000000000000000e+03,3.107581999999999844e+00
1.237917999999999893e+03,1.200000000000000000e+03,3.117485999999999979e+00
1.341023999999999887e+03,1.200000000000000000e+03,3.127580999999999722e+00
1.234656999999999925e+03,1.200000000000000000e+03,3.137639000000000067e+00
1.259287000000000035e+03,1.200000000000000000e+03,3.147501000000000104e+00
9.138185999999999467e+02,1.200000000000000000e+03,3.157439000000000107e+00
1.373468000000000075e+03,1.200000000000000000e+03,3.167374999999999829e+00
1.038211999999999989e+03,1.200000000000000000e+03,3.177392999999999912e+00
1.341023999999999887e+03,1.200000000000000000e+03,3.187248999999999999e+00
1.147185999999999922e+03,1.200000000000000000e+03,3.197309999999999874e+00
1.417749000000000024e+03,1.200000000000000000e+03,3.207246999999999737e+00
1.255411000000000058e+03,1.200000000000000000e+03,3.217303999999999942e+00
1.146992999999999938e+03,1.200000000000000000e+03,3.227240999999999804e+00
1.274298000000000002e+03,1.200000000000000000e+03,3.237257000000000051e+00
1.135856999999999971e+03,1.200000000000000000e+03,3.247233999999999732e+00
1.461038999999999987e+03,1.200000000000000000e+03,3.257127999999999801e+00
1.308579999999999927e+03,1.200000000000000000e+03,3.267183999999999866e+00
9.688196000000000367e+02,1.200000000000000000e+03,3.277165999999999801e+00
1.341990999999999985e+03,1.200000000000000000e+03,3.287144000000000066e+00
1.157269999999999982e+03,1.200000000000000000e+03,3.297123999999999722e+00
1.385280999999999949e+03,1.200000000000000000e+03,3.307020999999999766e+00
1.246386999999999944e+03,1.200000000000000000e+03,3.317075999999999691e+00
1.226766000000000076e+03,1.200000000000000000e+03,3.326932999999999918e+00
1.235548999999999978e+03,1.200000000000000000e+03,3.336988999999999983e+00
1.136701000000000022e+03,1.200000000000000000e+03,3.346926999999999985e+00
1.352814000000000078e+03,1.200000000000000000e+03,3.356911999999999896e+00
1.115522999999999911e+03,1.200000000000000000e+03,3.366954999999999920e+00
1.363635999999999967e+03,1.200000000000000000e+03,3.376851999999999965e+00
1.146992999999999938e+03,1.200000000000000000e+03,3.386749999999999705e+00
1.375451000000000022e+03,1.200000000000000000e+03,3.396767000000000092e+00
1.202165999999999940e+03,1.200000000000000000e+03,3.406839999999999868e+00
1.293680000000000064e+03,1.200000000000000000e+03,3.416697999999999791e+00
1.234656999999999925e+03,1.200000000000000000e+03,3.426752000000000020e+00
1.348440000000000055e+03,1.200000000000000000e+03,3.440520999999999940e+00
1.302942999999999984e+03,1.200000000000000000e+03,3.446482999999999741e+00
1.065876999999999953e+03,1.200000000000000000e+03,3.456452000000000080e+00
1.276135999999999967e+03,1.200000000000000000e+03,3.466466999999999743e+00
1.092125000000000000e+03,1.200000000000000000e+03,3.476445000000000007e+00
1.298701000000000022e+03,1.200000000000000000e+03,3.487731999999999832e+00
1.232876999999999953e+03,1.200000000000000000e+03,3.496426000000000034e+00
1.259287000000000035e+03,1.200000000000000000e+03,3.507595999999999936e+00
1.299638999999999896e+03,1.200000000000000000e+03,3.517789000000000055e+00
1.168830999999999904e+03,1.200000000000000000e+03,3.526523999999999770e+00
1.332130000000000109e+03,1.200000000000000000e+03,3.536543999999999688e+00
1.186196999999999889e+03,1.200000000000000000e+03,3.546609999999999818e+00
1.258352000000000089e+03,1.200000000000000000e+03,3.556426000000000087e+00
1.091314000000000078e+03,1.200000000000000000e+03,3.566364000000000090e+00
1.352814000000000078e+03,1.200000000000000000e+03,3.577725999999999740e+00
1.276135999999999967e+03,1.200000000000000000e+03,3.586392999999999720e+00
1.192422000000000025e+03,1.200000000000000000e+03,3.597777999999999921e+00
1.330209000000000060e+03,1.200000000000000000e+03,3.606507999999999825e+00
1.191336000000000013e+03,1.200000000000000000e+03,3.616680000000000117e+00
1.338289999999999964e+03,1.200000000000000000e+03,3.626497000000000082e+00
1.179653999999999996e+03,1.200000000000000000e+03,3.636553999999999842e+00
1.331169000000000096e+03,1.200000000000000000e+03,3.646449999999999747e+00
1.102450000000000045e+03,1.200000000000000000e+03,3.656426999999999872e+00
1.451263999999999896e+03,1.200000000000000000e+03,3.667711999999999861e+00
1.297765000000000100e+03,1.200000000000000000e+03,3.676523999999999681e+00
1.148699000000000069e+03,1.200000000000000000e+03,3.686522999999999772e+00
1.267147999999999911e+03,1.200000000000000000e+03,3.696654000000000106e+00
9.806834000000000060e+02,1.200000000000000000e+03,3.706589999999999829e+00
1.300577999999999975e+03,1.200000000000000000e+03,3.716523999999999717e+00
1.168830999999999904e+03,1.200000000000000000e+03,3.726580999999999921e+00
1.341023999999999887e+03,1.200000000000000000e+03,3.736437000000000008e+00
1.190476000000000113e+03,1.200000000000000000e+03,3.746493000000000073e+00
1.493314000000000078e+03,1.200000000000000000e+03,3.757803999999999700e+00
1.332130000000000109e+03,1.200000000000000000e+03,3.766573999999999867e+00
1.124721999999999980e+03,1.200000000000000000e+03,3.776666999999999774e+00
1.300577999999999975e+03,1.200000000000000000e+03,3.786642999999999759e+00
1.167989000000000033e+03,1.200000000000000000e+03,3.796699999999999964e+00
1.441473999999999933e+03,1.200000000000000000e+03,3.806553999999999771e+00
1.319394000000000005e+03,1.200000000000000000e+03,3.816611999999999671e+00
1.024499000000000024e+03,1.200000000000000000e+03,3.826591999999999771e+00
1.416727000000000089e+03,1.200000000000000000e+03,3.836644999999999861e+00
1.203566000000000031e+03,1.200000000000000000e+03,3.846762000000000015e+00
1.108647999999999911e+03,1.200000000000000000e+03,3.856719000000000008e+00
1.316347999999999956e+03,1.200000000000000000e+03,3.867696999999999719e+00
1.224943999999999960e+03,1.200000000000000000e+03,3.877586999999999673e+00
1.233905999999999949e+03,1.200000000000000000e+03,3.887683999999999696e+00
1.124721999999999980e+03,1.200000000000000000e+03,3.897663000000000100e+00
1.267147999999999911e+03,1.200000000000000000e+03,3.907601000000000102e+00
1.080178000000000111e+03,1.200000000000000000e+03,3.917549999999999866e+00
1.250000000000000000e+03,1.200000000000000000e+03,3.927640999999999938e+00
1.461038999999999987e+03,1.200000000000000000e+03,3.937543999999999933e+00
1.268064000000000078e+03,1.200000000000000000e+03,3.947601999999999833e+00
1.192422000000000025e+03,1.200000000000000000e+03,3.957504999999999828e+00
1.266233999999999924e+03,1.200000000000000000e+03,3.967519999999999936e+00
1.058692000000000007e+03,1.200000000000000000e+03,3.977457999999999938e+00
1.341023999999999887e+03,1.200000000000000000e+03,3.987439000000000178e+00
1.167989000000000033e+03,1.200000000000000000e+03,3.997549000000000241e+00
1.363635999999999967e+03,1.200000000000000000e+03,4.007455999999999463e+00
1.265320999999999913e+03,1.200000000000000000e+03,4.017514000000000252e+00
1.202672000000000025e+03,1.200000000000000000e+03,4.027370999999999590e+00
1.298701000000000022e+03,1.200000000000000000e+03,4.037424999999999820e+00
1.046770999999999958e+03,1.200000000000000000e+03,4.047363999999999962e+00
1.330209000000000060e+03,1.200000000000000000e+03,4.057339999999999947e+00
1.178803000000000111e+03,1.200000000000000000e+03,4.067395000000000316e+00
1.318443999999999960e+03,1.200000000000000000e+03,4.077310999999999908e+00
1.203035000000000082e+03,1.200000000000000000e+03,4.087645999999999447e+00
1.281575000000000045e+03,1.200000000000000000e+03,4.097503999999999813e+00
1.090503999999999905e+03,1.200000000000000000e+03,4.107482000000000077e+00
1.471861000000000104e+03,1.200000000000000000e+03,4.117417999999999800e+00
1.308579999999999927e+03,1.200000000000000000e+03,4.127474000000000309e+00
1.135856999999999971e+03,1.200000000000000000e+03,4.137412000000000312e+00
1.297765000000000100e+03,1.200000000000000000e+03,4.147388000000000297e+00
1.157173999999999978e+03,1.200000000000000000e+03,4.157440999999999498e+00
1.396104000000000042e+03,1.200000000000000000e+03,4.167591999999999963e+00
1.223826999999999998e+03,1.200000000000000000e+03,4.177704999999999558e+00
1.236079999999999927e+03,1.200000000000000000e+03,4.187707999999999764e+00
1.231988000000000056e+03,1.200000000000000000e+03,4.196377000000000024e+00
1.080980999999999995e+03,1.200000000000000000e+03,4.207621999999999751e+00
1.352814000000000078e+03,1.200000000000000000e+03,4.217637999999999998e+00
1.071429000000000087e+03,1.200000000000000000e+03,4.227654000000000245e+00
1.301929000000000087e+03,1.200000000000000000e+03,4.237528999999999435e+00
1.201298999999999978e+03,1.200000000000000000e+03,4.246458999999999762e+00
1.265320999999999913e+03,1.200000000000000000e+03,4.256395999999999624e+00
1.158940000000000055e+03,1.200000000000000000e+03,4.266441999999999624e+00
1.265320999999999913e+03,1.200000000000000000e+03,4.276457999999999871e+00
1.102450000000000045e+03,1.200000000000000000e+03,4.290090999999999433e+00
1.537634000000000015e+03,1.200000000000000000e+03,4.297366000000000241e+00
1.390086000000000013e+03,1.200000000000000000e+03,4.307460999999999984e+00
1.201298999999999978e+03,1.200000000000000000e+03,4.317572999999999439e+00
1.297765000000000100e+03,1.200000000000000000e+03,4.327525999999999762e+00
9.918275999999999613e+02,1.200000000000000000e+03,4.337423000000000251e+00
1.359711999999999989e+03,1.200000000000000000e+03,4.347412999999999528e+00
1.250000000000000000e+03,1.200000000000000000e+03,4.357493999999999978e+00
1.213807999999999993e+03,1.200000000000000000e+03,4.367351000000000205e+00
1.146992999999999938e+03,1.200000000000000000e+03,4.377327999999999442e+00
1.189617999999999938e+03,1.200000000000000000e+03,4.387303999999999427e+00
1.134726000000000113e+03,1.200000000000000000e+03,4.397260999999999420e+00
1.252700000000000045e+03,1.200000000000000000e+03,4.407257999999999676e+00
1.013363000000000056e+03,1.200000000000000000e+03,4.417155000000000165e+00
1.439394000000000005e+03,1.200000000000000000e+03,4.427131000000000149e+00
1.232876999999999953e+03,1.200000000000000000e+03,4.437189000000000050e+00
1.180401000000000067e+03,1.200000000000000000e+03,4.447086999999999790e+00
1.244588999999999942e+03,1.200000000000000000e+03,4.457103000000000037e+00
1.036403999999999996e+03,1.200000000000000000e+03,4.467000999999999777e+00
1.385280999999999949e+03,1.200000000000000000e+03,4.477036000000000016e+00
1.277056000000000040e+03,1.200000000000000000e+03,4.487146000000000079e+00
1.171003999999999905e+03,1.200000000000000000e+03,4.497003999999999557e+00
1.277056000000000040e+03,1.200000000000000000e+03,4.507018999999999664e+00
1.126354000000000042e+03,1.200000000000000000e+03,4.517037000000000191e+00
1.364621000000000095e+03,1.200000000000000000e+03,4.526934999999999931e+00
1.148013999999999896e+03,1.200000000000000000e+03,4.536951999999999430e+00
1.363635999999999967e+03,1.200000000000000000e+03,4.546888000000000041e+00
1.191537000000000035e+03,1.200000000000000000e+03,4.556928000000000090e+00
9.026746000000000549e+02,1.200000000000000000e+03,4.566882999999999804e+00
1.342960000000000036e+03,1.200000000000000000e+03,4.576779000000000153e+00
9.472509999999999764e+02,1.200000000000000000e+03,4.586716000000000015e+00
1.363635999999999967e+03,1.200000000000000000e+03,4.596690999999999860e+00
1.148699000000000069e+03,1.200000000000000000e+03,4.606627999999999723e+00
1.342960000000000036e+03,1.200000000000000000e+03,4.616643999999999970e+00
1.093863000000000056e+03,1.200000000000000000e+03,4.626698999999999451e+00
1.282528000000000020e+03,1.200000000000000000e+03,4.636575999999999809e+00
1.189617999999999938e+03,1.200000000000000000e+03,4.646690999999999683e+00
1.451263999999999896e+03,1.200000000000000000e+03,4.656584999999999752e+00
9.956710000000000491e+02,1.200000000000000000e+03,4.666604999999999670e+00
1.352814000000000078e+03,1.200000000000000000e+03,4.676460999999999757e+00
1.213873000000000047e+03,1.200000000000000000e+03,4.686603999999999992e+00
1.249070999999999913e+03,1.200000000000000000e+03,4.696423000000000236e+00
1.374459000000000060e+03,1.200000000000000000e+03,4.707418999999999798e+00
1.022980000000000018e+03,1.200000000000000000e+03,4.717502999999999780e+00
1.367551999999999907e+03,1.200000000000000000e+03,4.726445000000000007e+00
1.199567999999999984e+03,1.200000000000000000e+03,4.736501999999999768e+00
1.439394000000000005e+03,1.200000000000000000e+03,4.747709999999999653e+00
1.307636999999999944e+03,1.200000000000000000e+03,4.756381000000000192e+00
1.164941000000000031e+03,1.200000000000000000e+03,4.767647999999999442e+00
1.299638999999999896e+03,1.200000000000000000e+03,4.777727999999999753e+00
1.212121000000000095e+03,1.200000000000000000e+03,4.786398000000000152e+00
1.404160000000000082e+03,1.200000000000000000e+03,4.797632000000000119e+00
1.234656999999999925e+03,1.200000000000000000e+03,4.806591000000000058e+00
1.314030999999999949e+03,1.200000000000000000e+03,4.816448000000000285e+00
1.148013999999999896e+03,1.200000000000000000e+03,4.826552999999999649e+00
1.385280999999999949e+03,1.200000000000000000e+03,4.836451000000000278e+00
1.212121000000000095e+03,1.200000000000000000e+03,4.846505999999999759e+00
1.091314000000000078e+03,1.200000000000000000e+03,4.856365000000000265e+00
1.256317999999999984e+03,1.200000000000000000e+03,4.867726000000000219e+00
1.114413000000000011e+03,1.200000000000000000e+03,4.877686999999999884e+00
1.417749000000000024e+03,1.200000000000000000e+03,4.886574999999999669e+00
1.267147999999999911e+03,1.200000000000000000e+03,4.896631000000000178e+00
1.170134000000000015e+03,1.200000000000000000e+03,4.906639000000000195e+00
1.299638999999999896e+03,1.200000000000000000e+03,4.916653999999999414e+00
1.168830999999999904e+03,1.200000000000000000e+03,4.926673000000000080e+00
1.397112000000000080e+03,1.200000000000000000e+03,4.936567000000000149e+00
1.233766000000000076e+03,1.200000000000000000e+03,4.946607999999999450e+00
1.147846000000000004e+03,1.200000000000000000e+03,4.956527999999999601e+00
1.277056000000000040e+03,1.200000000000000000e+03,4.966890000000000249e+00
1.148013999999999896e+03,1.200000000000000000e+03,4.976947000000000010e+00
1.370728000000000065e+03,1.200000000000000000e+03,4.986893999999999494e+00
