0.000000000000000000e+00,0.000000000000000000e+00
0.000000000000000000e+00,1.997389999999999999e-01
0.000000000000000000e+00,3.999030000000000085e-01
0.000000000000000000e+00,5.996799999999999908e-01
0.000000000000000000e+00,7.998469999999998636e-01
0.000000000000000000e+00,1.000014999999999876e+00
0.000000000000000000e+00,1.199745000000000061e+00
0.000000000000000000e+00,1.399766000000000066e+00
0.000000000000000000e+00,1.599998999999999949e+00
0.000000000000000000e+00,1.799739000000000200e+00
0.000000000000000000e+00,1.999903000000000208e+00
0.000000000000000000e+00,2.200069000000000052e+00
0.000000000000000000e+00,2.399799999999999933e+00
0.000000000000000000e+00,2.600009000000000015e+00
0.000000000000000000e+00,2.799741000000000035e+00
0.000000000000000000e+00,2.999757999999999925e+00
0.000000000000000000e+00,3.199945000000000039e+00
0.000000000000000000e+00,3.399687999999999821e+00
0.000000000000000000e+00,3.599898000000000042e+00
0.000000000000000000e+00,3.800060999999999911e+00
0.000000000000000000e+00,3.999791999999999792e+00
0.000000000000000000e+00,4.199954999999999217e+00
0.000000000000000000e+00,4.399687999999999377e+00
0.000000000000000000e+00,4.600328999999999446e+00
0.000000000000000000e+00,4.799937999999999150e+00
0.000000000000000000e+00,4.999680999999999820e+00
0.000000000000000000e+00,5.199846999999999220e+00
0.000000000000000000e+00,5.400014999999999787e+00
0.000000000000000000e+00,5.599792999999999132e+00
0.000000000000000000e+00,5.799956999999999141e+00
0.000000000000000000e+00,5.999689999999999301e+00
0.000000000000000000e+00,6.199856999999999729e+00
0.000000000000000000e+00,6.399897999999999421e+00
0.000000000000000000e+00,6.599691999999999226e+00
0.000000000000000000e+00,6.799861999999999185e+00
0.000000000000000000e+00,7.000026999999999333e+00
0.000000000000000000e+00,7.199759999999999494e+00
0.000000000000000000e+00,7.399923999999999502e+00
0.000000000000000000e+00,7.599698999999999316e+00
0.000000000000000000e+00,7.799866999999999884e+00
0.000000000000000000e+00,7.999907999999998687e+00
0.000000000000000000e+00,8.199659000000000475e+00
0.000000000000000000e+00,8.399827000000000155e+00
0.000000000000000000e+00,8.600037999999999627e+00
0.000000000000000000e+00,8.799768999999999508e+00
0.000000000000000000e+00,8.999933999999999656e+00
0.000000000000000000e+00,9.199662000000000006e+00
0.000000000000000000e+00,9.399827999999999406e+00
0.000000000000000000e+00,9.599911000000000527e+00
0.000000000000000000e+00,9.799668999999999741e+00
